<?xml version="1.0"?>
<svg xmlns="http://www.w3.org/2000/svg" xmlns:xlink="http://www.w3.org/1999/xlink" version="1.1" x="0px" y="0px" viewBox="0 0 48 144" xml:space="preserve">
 <g>
  <title>Layer 1</title>
  <path stroke="null" id="svg_2" d="m0.873444,0.938241l106.114891,0l35.371681,22.993224l-35.371681,22.993324l-106.114891,0l35.371681,-22.993324l-35.371681,-22.993224z" stroke-opacity="null" stroke-width="0" fill="#565e62"/>
 </g>
</svg>